C:\Users\luis.rodriguez\Applications\workspace\AlianzaFiduciariaValores\src\test\java\com\alianzafiduciaria\poc\AlianzaFiduciariaValoresApplicationTests.java
C:\Users\luis.rodriguez\Applications\workspace\AlianzaFiduciariaValores\src\test\java\com\alianzafiduciaria\poc\mapper\IClienteMapperTest.java
C:\Users\luis.rodriguez\Applications\workspace\AlianzaFiduciariaValores\src\test\java\com\alianzafiduciaria\poc\service\ClienteServiceTest.java
